aula07/simulation/qsim/aula07.msim.vcd
$comment
	File created using the following command:
		vcd file aula07.msim.vcd -direction
$end
$date
	Fri Sep 29 15:01:12 2023
$end
$version
	ModelSim Version 2020.1
$end
$timescale
	1ps
$end

$scope module aula07_vhd_vec_tst $end
$var wire 1 ! CLOCK_50 $end
$var wire 1 " KEY [3] $end
$var wire 1 # KEY [2] $end
$var wire 1 $ KEY [1] $end
$var wire 1 % KEY [0] $end
$var wire 1 & PC_OUT [8] $end
$var wire 1 ' PC_OUT [7] $end
$var wire 1 ( PC_OUT [6] $end
$var wire 1 ) PC_OUT [5] $end
$var wire 1 * PC_OUT [4] $end
$var wire 1 + PC_OUT [3] $end
$var wire 1 , PC_OUT [2] $end
$var wire 1 - PC_OUT [1] $end
$var wire 1 . PC_OUT [0] $end

$scope module i1 $end
$var wire 1 / gnd $end
$var wire 1 0 vcc $end
$var wire 1 1 unknown $end
$var wire 1 2 devoe $end
$var wire 1 3 devclrn $end
$var wire 1 4 devpor $end
$var wire 1 5 ww_devoe $end
$var wire 1 6 ww_devclrn $end
$var wire 1 7 ww_devpor $end
$var wire 1 8 ww_CLOCK_50 $end
$var wire 1 9 ww_KEY [3] $end
$var wire 1 : ww_KEY [2] $end
$var wire 1 ; ww_KEY [1] $end
$var wire 1 < ww_KEY [0] $end
$var wire 1 = ww_PC_OUT [8] $end
$var wire 1 > ww_PC_OUT [7] $end
$var wire 1 ? ww_PC_OUT [6] $end
$var wire 1 @ ww_PC_OUT [5] $end
$var wire 1 A ww_PC_OUT [4] $end
$var wire 1 B ww_PC_OUT [3] $end
$var wire 1 C ww_PC_OUT [2] $end
$var wire 1 D ww_PC_OUT [1] $end
$var wire 1 E ww_PC_OUT [0] $end
$var wire 1 F \CLOCK_50~input_o\ $end
$var wire 1 G \KEY[1]~input_o\ $end
$var wire 1 H \KEY[2]~input_o\ $end
$var wire 1 I \KEY[3]~input_o\ $end
$var wire 1 J \~QUARTUS_CREATED_GND~I_combout\ $end
$var wire 1 K \KEY[0]~input_o\ $end
$var wire 1 L \KEY[0]~inputCLKENA0_outclk\ $end
$var wire 1 M \CPU|incrementaPC|Add0~2\ $end
$var wire 1 N \CPU|incrementaPC|Add0~5_sumout\ $end
$var wire 1 O \ROM1|memROM~3_combout\ $end
$var wire 1 P \ROM1|memROM~7_combout\ $end
$var wire 1 Q \ROM1|memROM~5_combout\ $end
$var wire 1 R \ROM1|memROM~4_combout\ $end
$var wire 1 S \CPU|PC|DOUT[5]~DUPLICATE_q\ $end
$var wire 1 T \CPU|incrementaPC|Add0~6\ $end
$var wire 1 U \CPU|incrementaPC|Add0~10\ $end
$var wire 1 V \CPU|incrementaPC|Add0~14\ $end
$var wire 1 W \CPU|incrementaPC|Add0~17_sumout\ $end
$var wire 1 X \CPU|MUX_PC|saida_MUX[4]~5_combout\ $end
$var wire 1 Y \CPU|PC|DOUT[4]~DUPLICATE_q\ $end
$var wire 1 Z \CPU|incrementaPC|Add0~18\ $end
$var wire 1 [ \CPU|incrementaPC|Add0~22\ $end
$var wire 1 \ \CPU|incrementaPC|Add0~25_sumout\ $end
$var wire 1 ] \CPU|MUX_PC|saida_MUX[6]~7_combout\ $end
$var wire 1 ^ \CPU|incrementaPC|Add0~26\ $end
$var wire 1 _ \CPU|incrementaPC|Add0~29_sumout\ $end
$var wire 1 ` \CPU|MUX_PC|saida_MUX[7]~8_combout\ $end
$var wire 1 a \CPU|PC|DOUT[7]~DUPLICATE_q\ $end
$var wire 1 b \CPU|PC|DOUT[8]~DUPLICATE_q\ $end
$var wire 1 c \CPU|PC|DOUT[6]~DUPLICATE_q\ $end
$var wire 1 d \CPU|UC1|saida~0_combout\ $end
$var wire 1 e \ROM1|memROM~8_combout\ $end
$var wire 1 f \ROM1|memROM~6_combout\ $end
$var wire 1 g \CPU|UC1|saida~1_combout\ $end
$var wire 1 h \CPU|incrementaPC|Add0~21_sumout\ $end
$var wire 1 i \CPU|MUX_PC|saida_MUX[5]~6_combout\ $end
$var wire 1 j \ROM1|memROM~1_combout\ $end
$var wire 1 k \CPU|UC1|saida~2_combout\ $end
$var wire 1 l \ROM1|memROM~10_combout\ $end
$var wire 1 m \CPU|MUX_PC|saida_MUX[1]~2_combout\ $end
$var wire 1 n \CPU|PC|DOUT[1]~DUPLICATE_q\ $end
$var wire 1 o \ROM1|memROM~13_combout\ $end
$var wire 1 p \CPU|incrementaPC|Add0~30\ $end
$var wire 1 q \CPU|incrementaPC|Add0~33_sumout\ $end
$var wire 1 r \CPU|MUX_PC|saida_MUX[8]~9_combout\ $end
$var wire 1 s \CPU|ZF1|DOUT~0_combout\ $end
$var wire 1 t \CPU|ZF1|DOUT~1_combout\ $end
$var wire 1 u \CPU|ULA1|saida[7]~0_combout\ $end
$var wire 1 v \ROM1|memROM~11_combout\ $end
$var wire 1 w \CPU|UC1|saida~3_combout\ $end
$var wire 1 x \ROM1|memROM~12_combout\ $end
$var wire 1 y \CPU|MUX_ULA|saida_MUX[3]~0_combout\ $end
$var wire 1 z \CPU|ULA1|saida[2]~4_combout\ $end
$var wire 1 { \CPU|UC1|saida[5]~4_combout\ $end
$var wire 1 | \CPU|ULA1|saida[1]~1_combout\ $end
$var wire 1 } \CPU|ULA1|saida[0]~2_combout\ $end
$var wire 1 ~ \CPU|ULA1|Add0~33_combout\ $end
$var wire 1 !! \CPU|ULA1|Equal1~0_combout\ $end
$var wire 1 "! \CPU|ULA1|Add0~36_cout\ $end
$var wire 1 #! \CPU|ULA1|Add0~17_sumout\ $end
$var wire 1 $! \CPU|ULA1|saida[0]~7_combout\ $end
$var wire 1 %! \CPU|ULA1|Add0~18\ $end
$var wire 1 &! \CPU|ULA1|Add0~13_sumout\ $end
$var wire 1 '! \CPU|ULA1|saida[1]~6_combout\ $end
$var wire 1 (! \CPU|ULA1|Add0~14\ $end
$var wire 1 )! \CPU|ULA1|Add0~5_sumout\ $end
$var wire 1 *! \CPU|ULA1|saida[3]~5_combout\ $end
$var wire 1 +! \CPU|ULA1|Add0~32_combout\ $end
$var wire 1 ,! \CPU|ULA1|Add0~6\ $end
$var wire 1 -! \CPU|ULA1|Add0~9_sumout\ $end
$var wire 1 .! \CPU|ZF1|DOUT~2_combout\ $end
$var wire 1 /! \CPU|ZF1|DOUT~3_combout\ $end
$var wire 1 0! \CPU|ULA1|saida[7]~3_combout\ $end
$var wire 1 1! \CPU|ULA1|Add0~10\ $end
$var wire 1 2! \CPU|ULA1|Add0~29_sumout\ $end
$var wire 1 3! \CPU|ULA1|saida[4]~10_combout\ $end
$var wire 1 4! \CPU|ULA1|Add0~30\ $end
$var wire 1 5! \CPU|ULA1|Add0~25_sumout\ $end
$var wire 1 6! \CPU|ULA1|saida[5]~9_combout\ $end
$var wire 1 7! \CPU|ULA1|Add0~26\ $end
$var wire 1 8! \CPU|ULA1|Add0~21_sumout\ $end
$var wire 1 9! \CPU|ULA1|saida[6]~8_combout\ $end
$var wire 1 :! \CPU|ULA1|Add0~22\ $end
$var wire 1 ;! \CPU|ULA1|Add0~1_sumout\ $end
$var wire 1 <! \CPU|ZF1|DOUT~4_combout\ $end
$var wire 1 =! \CPU|ZF1|DOUT~5_combout\ $end
$var wire 1 >! \CPU|ZF1|DOUT~q\ $end
$var wire 1 ?! \CPU|UC1|Equal4~0_combout\ $end
$var wire 1 @! \CPU|MUX_PC|saida_MUX[4]~0_combout\ $end
$var wire 1 A! \CPU|incrementaPC|Add0~13_sumout\ $end
$var wire 1 B! \CPU|MUX_PC|saida_MUX[3]~4_combout\ $end
$var wire 1 C! \ROM1|memROM~0_combout\ $end
$var wire 1 D! \ROM1|memROM~2_combout\ $end
$var wire 1 E! \CPU|PC|DOUT[0]~0_combout\ $end
$var wire 1 F! \CPU|incrementaPC|Add0~9_sumout\ $end
$var wire 1 G! \CPU|MUX_PC|saida_MUX[2]~3_combout\ $end
$var wire 1 H! \CPU|PC|DOUT[2]~DUPLICATE_q\ $end
$var wire 1 I! \ROM1|memROM~9_combout\ $end
$var wire 1 J! \CPU|incrementaPC|Add0~1_sumout\ $end
$var wire 1 K! \CPU|MUX_PC|saida_MUX[0]~1_combout\ $end
$var wire 1 L! \CPU|REGRET|DOUT\ [8] $end
$var wire 1 M! \CPU|REGRET|DOUT\ [7] $end
$var wire 1 N! \CPU|REGRET|DOUT\ [6] $end
$var wire 1 O! \CPU|REGRET|DOUT\ [5] $end
$var wire 1 P! \CPU|REGRET|DOUT\ [4] $end
$var wire 1 Q! \CPU|REGRET|DOUT\ [3] $end
$var wire 1 R! \CPU|REGRET|DOUT\ [2] $end
$var wire 1 S! \CPU|REGRET|DOUT\ [1] $end
$var wire 1 T! \CPU|REGRET|DOUT\ [0] $end
$var wire 1 U! \CPU|PC|DOUT\ [8] $end
$var wire 1 V! \CPU|PC|DOUT\ [7] $end
$var wire 1 W! \CPU|PC|DOUT\ [6] $end
$var wire 1 X! \CPU|PC|DOUT\ [5] $end
$var wire 1 Y! \CPU|PC|DOUT\ [4] $end
$var wire 1 Z! \CPU|PC|DOUT\ [3] $end
$var wire 1 [! \CPU|PC|DOUT\ [2] $end
$var wire 1 \! \CPU|PC|DOUT\ [1] $end
$var wire 1 ]! \CPU|PC|DOUT\ [0] $end
$var wire 1 ^! \CPU|REGA|DOUT\ [7] $end
$var wire 1 _! \CPU|REGA|DOUT\ [6] $end
$var wire 1 `! \CPU|REGA|DOUT\ [5] $end
$var wire 1 a! \CPU|REGA|DOUT\ [4] $end
$var wire 1 b! \CPU|REGA|DOUT\ [3] $end
$var wire 1 c! \CPU|REGA|DOUT\ [2] $end
$var wire 1 d! \CPU|REGA|DOUT\ [1] $end
$var wire 1 e! \CPU|REGA|DOUT\ [0] $end
$var wire 1 f! \CPU|REGA|ALT_INV_DOUT\ [7] $end
$var wire 1 g! \CPU|REGA|ALT_INV_DOUT\ [6] $end
$var wire 1 h! \CPU|REGA|ALT_INV_DOUT\ [5] $end
$var wire 1 i! \CPU|REGA|ALT_INV_DOUT\ [4] $end
$var wire 1 j! \CPU|REGA|ALT_INV_DOUT\ [3] $end
$var wire 1 k! \CPU|REGA|ALT_INV_DOUT\ [2] $end
$var wire 1 l! \CPU|REGA|ALT_INV_DOUT\ [1] $end
$var wire 1 m! \CPU|REGA|ALT_INV_DOUT\ [0] $end
$var wire 1 n! \CPU|ULA1|ALT_INV_Add0~33_combout\ $end
$var wire 1 o! \CPU|ULA1|ALT_INV_Add0~32_combout\ $end
$var wire 1 p! \CPU|ULA1|ALT_INV_Equal1~0_combout\ $end
$var wire 1 q! \CPU|ZF1|ALT_INV_DOUT~4_combout\ $end
$var wire 1 r! \CPU|ZF1|ALT_INV_DOUT~3_combout\ $end
$var wire 1 s! \CPU|ULA1|ALT_INV_saida[0]~2_combout\ $end
$var wire 1 t! \CPU|ULA1|ALT_INV_saida[1]~1_combout\ $end
$var wire 1 u! \CPU|ZF1|ALT_INV_DOUT~2_combout\ $end
$var wire 1 v! \CPU|MUX_ULA|ALT_INV_saida_MUX[3]~0_combout\ $end
$var wire 1 w! \CPU|UC1|ALT_INV_saida~3_combout\ $end
$var wire 1 x! \CPU|ZF1|ALT_INV_DOUT~1_combout\ $end
$var wire 1 y! \CPU|ZF1|ALT_INV_DOUT~0_combout\ $end
$var wire 1 z! \CPU|ULA1|ALT_INV_saida[7]~0_combout\ $end
$var wire 1 {! \ROM1|ALT_INV_memROM~13_combout\ $end
$var wire 1 |! \CPU|REGRET|ALT_INV_DOUT\ [8] $end
$var wire 1 }! \CPU|REGRET|ALT_INV_DOUT\ [7] $end
$var wire 1 ~! \CPU|REGRET|ALT_INV_DOUT\ [6] $end
$var wire 1 !" \CPU|REGRET|ALT_INV_DOUT\ [5] $end
$var wire 1 "" \CPU|REGRET|ALT_INV_DOUT\ [4] $end
$var wire 1 #" \CPU|REGRET|ALT_INV_DOUT\ [3] $end
$var wire 1 $" \CPU|REGRET|ALT_INV_DOUT\ [2] $end
$var wire 1 %" \CPU|REGRET|ALT_INV_DOUT\ [1] $end
$var wire 1 &" \CPU|REGRET|ALT_INV_DOUT\ [0] $end
$var wire 1 '" \ROM1|ALT_INV_memROM~12_combout\ $end
$var wire 1 (" \ROM1|ALT_INV_memROM~11_combout\ $end
$var wire 1 )" \ROM1|ALT_INV_memROM~10_combout\ $end
$var wire 1 *" \ROM1|ALT_INV_memROM~9_combout\ $end
$var wire 1 +" \CPU|MUX_PC|ALT_INV_saida_MUX[4]~0_combout\ $end
$var wire 1 ," \CPU|UC1|ALT_INV_saida~2_combout\ $end
$var wire 1 -" \CPU|ZF1|ALT_INV_DOUT~q\ $end
$var wire 1 ." \CPU|PC|ALT_INV_DOUT[0]~0_combout\ $end
$var wire 1 /" \CPU|UC1|ALT_INV_saida~1_combout\ $end
$var wire 1 0" \CPU|UC1|ALT_INV_Equal4~0_combout\ $end
$var wire 1 1" \ROM1|ALT_INV_memROM~8_combout\ $end
$var wire 1 2" \ROM1|ALT_INV_memROM~7_combout\ $end
$var wire 1 3" \ROM1|ALT_INV_memROM~6_combout\ $end
$var wire 1 4" \ROM1|ALT_INV_memROM~5_combout\ $end
$var wire 1 5" \ROM1|ALT_INV_memROM~4_combout\ $end
$var wire 1 6" \ROM1|ALT_INV_memROM~3_combout\ $end
$var wire 1 7" \ROM1|ALT_INV_memROM~2_combout\ $end
$var wire 1 8" \ROM1|ALT_INV_memROM~1_combout\ $end
$var wire 1 9" \ROM1|ALT_INV_memROM~0_combout\ $end
$var wire 1 :" \CPU|UC1|ALT_INV_saida~0_combout\ $end
$var wire 1 ;" \CPU|PC|ALT_INV_DOUT\ [8] $end
$var wire 1 <" \CPU|PC|ALT_INV_DOUT\ [7] $end
$var wire 1 =" \CPU|PC|ALT_INV_DOUT\ [6] $end
$var wire 1 >" \CPU|PC|ALT_INV_DOUT\ [5] $end
$var wire 1 ?" \CPU|PC|ALT_INV_DOUT\ [4] $end
$var wire 1 @" \CPU|PC|ALT_INV_DOUT\ [3] $end
$var wire 1 A" \CPU|PC|ALT_INV_DOUT\ [2] $end
$var wire 1 B" \CPU|PC|ALT_INV_DOUT\ [1] $end
$var wire 1 C" \CPU|PC|ALT_INV_DOUT\ [0] $end
$var wire 1 D" \CPU|ULA1|ALT_INV_Add0~29_sumout\ $end
$var wire 1 E" \CPU|ULA1|ALT_INV_Add0~25_sumout\ $end
$var wire 1 F" \CPU|ULA1|ALT_INV_Add0~21_sumout\ $end
$var wire 1 G" \CPU|ULA1|ALT_INV_Add0~17_sumout\ $end
$var wire 1 H" \CPU|ULA1|ALT_INV_Add0~13_sumout\ $end
$var wire 1 I" \CPU|ULA1|ALT_INV_Add0~9_sumout\ $end
$var wire 1 J" \CPU|ULA1|ALT_INV_Add0~5_sumout\ $end
$var wire 1 K" \CPU|ULA1|ALT_INV_Add0~1_sumout\ $end
$var wire 1 L" \CPU|incrementaPC|ALT_INV_Add0~33_sumout\ $end
$var wire 1 M" \CPU|incrementaPC|ALT_INV_Add0~29_sumout\ $end
$var wire 1 N" \CPU|incrementaPC|ALT_INV_Add0~25_sumout\ $end
$var wire 1 O" \CPU|incrementaPC|ALT_INV_Add0~21_sumout\ $end
$var wire 1 P" \CPU|incrementaPC|ALT_INV_Add0~17_sumout\ $end
$var wire 1 Q" \CPU|incrementaPC|ALT_INV_Add0~13_sumout\ $end
$var wire 1 R" \CPU|incrementaPC|ALT_INV_Add0~9_sumout\ $end
$var wire 1 S" \CPU|incrementaPC|ALT_INV_Add0~5_sumout\ $end
$var wire 1 T" \CPU|incrementaPC|ALT_INV_Add0~1_sumout\ $end
$var wire 1 U" \CPU|PC|ALT_INV_DOUT[8]~DUPLICATE_q\ $end
$var wire 1 V" \CPU|PC|ALT_INV_DOUT[7]~DUPLICATE_q\ $end
$var wire 1 W" \CPU|PC|ALT_INV_DOUT[6]~DUPLICATE_q\ $end
$var wire 1 X" \CPU|PC|ALT_INV_DOUT[5]~DUPLICATE_q\ $end
$var wire 1 Y" \CPU|PC|ALT_INV_DOUT[4]~DUPLICATE_q\ $end
$var wire 1 Z" \CPU|PC|ALT_INV_DOUT[2]~DUPLICATE_q\ $end
$var wire 1 [" \CPU|PC|ALT_INV_DOUT[1]~DUPLICATE_q\ $end
$upscope $end
$upscope $end
$enddefinitions $end
#0
$dumpvars
x!
0/
10
x1
12
13
14
15
16
17
x8
xF
xG
xH
xI
xJ
0K
0L
0M
0N
0O
1P
0Q
0R
0S
0T
0U
0V
0W
0X
0Y
0Z
0[
0\
0]
0^
0_
0`
0a
0b
0c
1d
1e
0f
0g
0h
0i
1j
1k
0l
1m
0n
0o
0p
0q
0r
0s
0t
0u
0v
1w
1x
0y
0z
0{
0|
0}
1~
1!!
1"!
0#!
0$!
1%!
0&!
0'!
1(!
0)!
0*!
1+!
1,!
0-!
1.!
0/!
00!
11!
02!
03!
14!
05!
06!
17!
08!
09!
1:!
0;!
0<!
0=!
0>!
0?!
0@!
0A!
1B!
0C!
0D!
0E!
0F!
1G!
0H!
0I!
1J!
0K!
0n!
0o!
0p!
1q!
1r!
1s!
1t!
0u!
1v!
0w!
1x!
1y!
1z!
1{!
0'"
1("
1)"
1*"
1+"
0,"
1-"
1."
1/"
10"
01"
02"
13"
14"
15"
16"
17"
08"
19"
0:"
1D"
1E"
1F"
1G"
1H"
1I"
1J"
1K"
1L"
1M"
1N"
1O"
1P"
1Q"
1R"
1S"
0T"
1U"
1V"
1W"
1X"
1Y"
1Z"
1["
x"
x#
x$
0%
x9
x:
x;
0<
0=
0>
0?
0@
0A
0B
0C
0D
0E
0L!
0M!
0N!
0O!
0P!
0Q!
0R!
0S!
0T!
0U!
0V!
0W!
0X!
0Y!
0Z!
0[!
0\!
0]!
0^!
0_!
0`!
0a!
0b!
0c!
0d!
0e!
1f!
1g!
1h!
1i!
1j!
1k!
1l!
1m!
1|!
1}!
1~!
1!"
1""
1#"
1$"
1%"
1&"
1;"
1<"
1="
1>"
1?"
1@"
1A"
1B"
1C"
0&
0'
0(
0)
0*
0+
0,
0-
0.
$end
#20000
1%
1<
1K
1L
1[!
1n
1Z!
1H!
1\!
1T!
0&"
0B"
0Z"
0@"
0["
0A"
1F!
1N
1A!
0P
1l
1v
0x
1'"
0("
0)"
12"
0Q"
0S"
0R"
1B
1D
1C
0e
0k
0!!
0m
0G!
0B!
1-
1,
1+
1p!
1,"
11"
1@!
0+"
1m
1B!
1G!
1K!
#40000
0%
0<
0K
0L
#60000
1%
1<
1K
1L
1]!
0C"
0J!
1M
1O
1P
02"
06"
1T"
1E
0N
1T
0K!
1R
1e
1!!
1S"
1.
0F!
1U
0p!
01"
05"
0m
1R"
1g
0A!
1V
0G!
1Q"
0/"
1W
1E!
0B!
0P"
0."
1K!
#80000
0%
0<
0K
0L
#100000
1%
1<
1K
1L
0[!
0n
0Z!
0H!
0\!
1B"
1Z"
1@"
1["
1A"
1F!
0U
1N
0T
1A!
0V
0P
1Q
0v
1I!
0*"
1("
04"
12"
0Q"
0S"
0R"
0B
0D
0C
0W
0F!
0A!
0e
1f
1Q"
1R"
1P"
0-
0,
0+
03"
11"
0g
1?!
00"
1/"
0@!
0E!
1."
1+"
1G!
#120000
0%
0<
0K
0L
#140000
1%
1<
1K
1L
1[!
1H!
0Z"
0A"
1F!
0O
16"
0R"
1C
0R
1u
0w
1{
1,
1w!
0z!
15"
0?!
1z
1}
0~
1)!
0,!
0.!
1u!
0J"
1n!
0s!
10"
1-!
01!
1@!
1$!
1#!
0%!
0I"
12!
04!
0G"
0+"
1&!
0(!
0D"
1m
0K!
15!
07!
0H"
0)!
0E"
18!
0:!
1J"
0F"
1;!
0K"
#160000
0%
0<
0K
0L
#180000
1%
1<
1K
1L
1n
1c!
1e!
1\!
0]!
1C"
0B"
0m!
0k!
0["
0N
1T
1)!
0#!
1%!
1J!
0M
1o
1v
1C!
0I!
1*"
09"
0("
0{!
0T"
1G"
0J"
1S"
0E
1D
1N
0T
0&!
1(!
0F!
1U
0m
0z
0)!
1,!
1.!
0u
1w
0{
1D!
0}
1~
1K!
1R"
1H"
0S"
0.
1-
1A!
1)!
1F!
0U
0n!
1s!
07"
0w!
1z!
0u!
1J"
1m
0G!
0-!
11!
0R"
0J"
0Q"
10!
13!
16!
19!
1<!
1*!
0.!
0$!
1#!
0A!
1I"
1B!
1z
1G!
02!
14!
1Q"
0G"
1u!
0q!
0*!
1D"
1$!
0B!
05!
17!
03!
1E"
08!
1:!
06!
1F"
0;!
09!
0<!
1K"
1q!
00!
#200000
0%
0<
0K
0L
#220000
1%
1<
1K
1L
1]!
0C"
0J!
1M
1P
0Q
14"
02"
1T"
1E
0N
1T
0K!
1e
0f
1S"
1.
0F!
1U
13"
01"
0m
1R"
1s
1A!
0G!
0Q"
0y!
1B!
#240000
0%
0<
0K
0L
#260000
1%
1<
1K
1L
0[!
0n
1Z!
0H!
0\!
0]!
1C"
1B"
1Z"
0@"
1["
1A"
1F!
0U
1N
0T
0A!
1V
1J!
0M
1O
0P
1Q
0l
0o
0C!
19"
1{!
1)"
04"
12"
06"
0T"
1Q"
0S"
0R"
0E
1B
0D
0C
0N
1W
0F!
1A!
0V
1G!
0B!
1K!
1R
0e
1f
1m
0D!
0Q"
1R"
0P"
1S"
0.
0-
0,
1+
0W
17"
03"
11"
05"
0m
1X
0G!
1B!
1P"
1?!
0s
0X
1y!
00"
0@!
1+"
1m
0B!
0K!
#280000
0%
0<
0K
0L
#300000
1%
1<
1K
1L
1n
0Z!
1\!
0B"
1@"
0["
1N
0A!
1l
1x
1C!
1I!
0*"
09"
0'"
0)"
1Q"
0S"
0B
1D
0m
1B!
1D!
1K!
1-
0+
07"
1@!
0+"
1m
0B!
#320000
0%
0<
0K
0L
#340000
1%
1<
1K
1L
1]!
0C"
0J!
1M
0O
0Q
0x
0C!
0I!
1*"
19"
1'"
14"
16"
1T"
1E
0N
1T
0R
0f
0!!
0D!
0K!
1S"
1.
1F!
17"
1p!
13"
15"
0m
0R"
0?!
0@!
1G!
1+"
10"
1@!
0G!
0+"
1G!
#360000
0%
0<
0K
0L
#380000
1%
1<
1K
1L
1[!
0n
1H!
0\!
0]!
1C"
1B"
0Z"
1["
0A"
0F!
1U
1N
0T
1J!
0M
0T"
0S"
1R"
0E
0D
1C
0N
1F!
0U
1A!
0G!
1m
1K!
0Q"
0R"
1S"
0.
0-
1,
0A!
0m
1G!
1B!
1Q"
0B!
#400000
0%
0<
0K
0L
#420000
1%
1<
1K
1L
1]!
0C"
0J!
1M
1Q
0v
1I!
0*"
1("
04"
1T"
1E
1N
1f
1u
0w
1{
1!!
0K!
0S"
1.
0p!
1w!
0z!
03"
1m
1}
0~
0$!
0)!
1J"
1n!
0s!
1$!
0#!
1G"
#440000
0%
0<
0K
0L
#460000
1%
1<
1K
1L
1n
1\!
0]!
1C"
0B"
0["
0N
1T
1J!
0M
1o
1v
1C!
0I!
1*"
09"
0("
0{!
0T"
1S"
0E
1D
1N
0T
0F!
1U
0m
0z
1)!
1.!
0u
1w
0{
1D!
0}
1~
1K!
1R"
0S"
0.
1-
1A!
1F!
0U
0n!
1s!
07"
0w!
1z!
0u!
0J"
1m
0G!
0R"
0Q"
1z
0.!
0$!
1#!
0A!
1B!
1G!
1Q"
0G"
1u!
1$!
0B!
#480000
0%
0<
0K
0L
#500000
1%
1<
1K
1L
1]!
0C"
0J!
1M
1P
0Q
14"
02"
1T"
1E
0N
1T
0K!
1e
0f
1S"
1.
0F!
1U
13"
01"
0m
1R"
1s
1A!
0G!
0Q"
0y!
1B!
#520000
0%
0<
0K
0L
#540000
1%
1<
1K
1L
0[!
0n
1Z!
0H!
0\!
0]!
1C"
1B"
1Z"
0@"
1["
1A"
1F!
0U
1N
0T
0A!
1V
1J!
0M
1O
0P
1Q
0l
0o
0C!
19"
1{!
1)"
04"
12"
06"
0T"
1Q"
0S"
0R"
0E
1B
0D
0C
0N
1W
0F!
1A!
0V
1G!
0B!
1K!
1R
0e
1f
1m
0D!
0Q"
1R"
0P"
1S"
0.
0-
0,
1+
0W
17"
03"
11"
05"
0m
1X
0G!
1B!
1P"
1?!
0s
0X
1y!
00"
0@!
1+"
1m
0B!
0K!
#560000
0%
0<
0K
0L
